\relax 
\providecommand\hyper@newdestlabel[2]{}
\providecommand\HyperFirstAtBeginDocument{\AtBeginDocument}
\HyperFirstAtBeginDocument{\ifx\hyper@anchor\@undefined
\global\let\oldcontentsline\contentsline
\gdef\contentsline#1#2#3#4{\oldcontentsline{#1}{#2}{#3}}
\global\let\oldnewlabel\newlabel
\gdef\newlabel#1#2{\newlabelxx{#1}#2}
\gdef\newlabelxx#1#2#3#4#5#6{\oldnewlabel{#1}{{#2}{#3}}}
\AtEndDocument{\ifx\hyper@anchor\@undefined
\let\contentsline\oldcontentsline
\let\newlabel\oldnewlabel
\fi}
\fi}
\global\let\hyper@last\relax 
\gdef\HyperFirstAtBeginDocument#1{#1}
\providecommand\HyField@AuxAddToFields[1]{}
\providecommand\HyField@AuxAddToCoFields[2]{}
\catcode `"\active 
\babel@aux{dutch}{}
\@writefile{toc}{\contentsline {section}{\numberline {1}Inleiding}{3}{section.1}\protected@file@percent }
\@writefile{toc}{\contentsline {section}{\numberline {2}Architectuur op Azure}{3}{section.2}\protected@file@percent }
\newlabel{sec:architectuurOpAzure}{{2}{3}{Architectuur op Azure}{section.2}{}}
\newlabel{1@xvr}{{}{3}{Architectuur op Azure}{section.2}{}}
\newlabel{1@vr}{{}{3}{Architectuur op Azure}{section.2}{}}
\@writefile{toc}{\contentsline {subsection}{\numberline {2.1}Load Balancer}{3}{subsection.2.1}\protected@file@percent }
\@writefile{toc}{\contentsline {subsection}{\numberline {2.2}Mira Backend}{3}{subsection.2.2}\protected@file@percent }
\newlabel{2@xvr}{{}{3}{Mira Backend}{subsection.2.2}{}}
\newlabel{2@vr}{{}{3}{Mira Backend}{subsection.2.2}{}}
\@writefile{lof}{\contentsline {figure}{\numberline {1}{\ignorespaces Architectuur op Azure\relax }}{4}{figure.caption.1}\protected@file@percent }
\providecommand*\caption@xref[2]{\@setref\relax\@undefined{#1}}
\newlabel{fig:azure}{{1}{4}{Architectuur op Azure\relax }{figure.caption.1}{}}
\@writefile{toc}{\contentsline {subsection}{\numberline {2.3}Licentie server}{4}{subsection.2.3}\protected@file@percent }
\@writefile{toc}{\contentsline {subsubsection}{\numberline {2.3.1}Structuur licentie database}{4}{subsubsection.2.3.1}\protected@file@percent }
\newlabel{3@xvr}{{}{4}{Structuur licentie database}{subsubsection.2.3.1}{}}
\newlabel{3@vr}{{}{4}{Structuur licentie database}{subsubsection.2.3.1}{}}
\@writefile{lof}{\contentsline {figure}{\numberline {2}{\ignorespaces Relatie diagram van licentie database\relax }}{5}{figure.caption.2}\protected@file@percent }
\newlabel{fig:licentieERD}{{2}{5}{Relatie diagram van licentie database\relax }{figure.caption.2}{}}
\@writefile{toc}{\contentsline {subsubsection}{\numberline {2.3.2}Nieuwe klant}{5}{subsubsection.2.3.2}\protected@file@percent }
\newlabel{subsubsec:nieuweklant}{{2.3.2}{5}{Nieuwe klant}{subsubsection.2.3.2}{}}
\@writefile{toc}{\contentsline {subsection}{\numberline {2.4}Database server}{6}{subsection.2.4}\protected@file@percent }
\newlabel{subsec:databaseServer}{{2.4}{6}{Database server}{subsection.2.4}{}}
\@writefile{toc}{\contentsline {subsubsection}{\numberline {2.4.1}Rechtstreekse connectie naar Database Server}{6}{subsubsection.2.4.1}\protected@file@percent }
\newlabel{subsubsec:connection}{{2.4.1}{6}{Rechtstreekse connectie naar Database Server}{subsubsection.2.4.1}{}}
\@writefile{toc}{\contentsline {subsection}{\numberline {2.5}Overige Componenten}{6}{subsection.2.5}\protected@file@percent }
\@writefile{toc}{\contentsline {subsubsection}{\numberline {2.5.1}Network Security Group}{6}{subsubsection.2.5.1}\protected@file@percent }
\@writefile{toc}{\contentsline {subsubsection}{\numberline {2.5.2}Azure File Storage}{7}{subsubsection.2.5.2}\protected@file@percent }
\@writefile{toc}{\contentsline {subsubsection}{\numberline {2.5.3}DNS Zone}{7}{subsubsection.2.5.3}\protected@file@percent }
\newlabel{subsubsec:dns}{{2.5.3}{7}{DNS Zone}{subsubsection.2.5.3}{}}
\@writefile{toc}{\contentsline {section}{\numberline {3}Architectuur on site}{7}{section.3}\protected@file@percent }
\newlabel{sec:architectuurOnSite}{{3}{7}{Architectuur on site}{section.3}{}}
\newlabel{4@xvr}{{}{7}{Architectuur on site}{section.3}{}}
\newlabel{4@vr}{{}{7}{Architectuur on site}{section.3}{}}
\@writefile{toc}{\contentsline {subsection}{\numberline {3.1}Licentie server on site}{7}{subsection.3.1}\protected@file@percent }
\@writefile{lof}{\contentsline {figure}{\numberline {3}{\ignorespaces Architectuur on site\relax }}{8}{figure.caption.3}\protected@file@percent }
\newlabel{fig:onsite}{{3}{8}{Architectuur on site\relax }{figure.caption.3}{}}
\@writefile{toc}{\contentsline {section}{\numberline {4}Installatie van nieuwe klant op Azure}{9}{section.4}\protected@file@percent }
\newlabel{subsec:installatieAzure}{{4}{9}{Installatie van nieuwe klant op Azure}{section.4}{}}
\@writefile{toc}{\contentsline {subsection}{\numberline {4.1}Licentie aanmaken}{9}{subsection.4.1}\protected@file@percent }
\newlabel{sec:licentieAanmaken}{{4.1}{9}{Licentie aanmaken}{subsection.4.1}{}}
\newlabel{fig:install-azure-connectdb}{{4a}{9}{Connectie maken met database\relax }{figure.caption.4}{}}
\newlabel{sub@fig:install-azure-connectdb}{{a}{9}{Connectie maken met database\relax }{figure.caption.4}{}}
\newlabel{fig:install-azure-licensingdb}{{4b}{9}{Structuur licentie database\relax }{figure.caption.4}{}}
\newlabel{sub@fig:install-azure-licensingdb}{{b}{9}{Structuur licentie database\relax }{figure.caption.4}{}}
\@writefile{lof}{\contentsline {figure}{\numberline {4}{\ignorespaces Licentie database\relax }}{9}{figure.caption.4}\protected@file@percent }
\@writefile{toc}{\contentsline {subsubsection}{\numberline {4.1.1}Aanmaken van een organisatie}{9}{subsubsection.4.1.1}\protected@file@percent }
\newlabel{subsubsec:aanmakenOrganisatie}{{4.1.1}{9}{Aanmaken van een organisatie}{subsubsection.4.1.1}{}}
\@writefile{toc}{\contentsline {subsubsection}{\numberline {4.1.2}Aanmaken van een database}{10}{subsubsection.4.1.2}\protected@file@percent }
\newlabel{5@xvr}{{}{10}{Aanmaken van een database}{subsubsection.4.1.2}{}}
\newlabel{5@vr}{{}{10}{Aanmaken van een database}{subsubsection.4.1.2}{}}
\@writefile{toc}{\contentsline {paragraph}{\numberline {4.1.2.1}Aanmaken login voor nieuwe database}{10}{paragraph.4.1.2.1}\protected@file@percent }
\@writefile{lol}{\contentsline {lstlisting}{\numberline {1}Aanmaken nieuwe login}{10}{lstlisting.1}\protected@file@percent }
\@writefile{toc}{\contentsline {paragraph}{\numberline {4.1.2.2}Aanmaken gebruiker voor nieuwe database}{10}{paragraph.4.1.2.2}\protected@file@percent }
\@writefile{lol}{\contentsline {lstlisting}{\numberline {2}Aanmaken nieuwe gebruiker}{11}{lstlisting.2}\protected@file@percent }
\@writefile{toc}{\contentsline {paragraph}{\numberline {4.1.2.3}Gebruiker rechten geven op nieuwe database}{11}{paragraph.4.1.2.3}\protected@file@percent }
\@writefile{lol}{\contentsline {lstlisting}{\numberline {3}Rol aanpassen van gebruiker}{11}{lstlisting.3}\protected@file@percent }
\@writefile{toc}{\contentsline {subsection}{\numberline {4.2}Aanmaken nieuwe DNS record}{11}{subsection.4.2}\protected@file@percent }
\newlabel{6@xvr}{{}{11}{Aanmaken nieuwe DNS record}{subsection.4.2}{}}
\newlabel{6@vr}{{}{11}{Aanmaken nieuwe DNS record}{subsection.4.2}{}}
\@writefile{toc}{\contentsline {subsection}{\numberline {4.3}Aanpassingen aan de firewalls op Azure}{11}{subsection.4.3}\protected@file@percent }
\@writefile{toc}{\contentsline {section}{\numberline {5}Installatie van nieuwe klant on site}{11}{section.5}\protected@file@percent }
\newlabel{sec:installatieOnSite}{{5}{11}{Installatie van nieuwe klant on site}{section.5}{}}
\@writefile{toc}{\contentsline {subsection}{\numberline {5.1}Voorbereiding}{11}{subsection.5.1}\protected@file@percent }
\@writefile{toc}{\contentsline {subsubsection}{\numberline {5.1.1}Licentie aanmaken}{11}{subsubsection.5.1.1}\protected@file@percent }
\@writefile{toc}{\contentsline {paragraph}{\numberline {5.1.1.1}Aanmaken van de backend}{12}{paragraph.5.1.1.1}\protected@file@percent }
\newlabel{subsubsec:backend}{{5.1.1.1}{12}{Aanmaken van de backend}{paragraph.5.1.1.1}{}}
\@writefile{toc}{\contentsline {paragraph}{\numberline {5.1.1.2}Aanmaken van een database}{12}{paragraph.5.1.1.2}\protected@file@percent }
\@writefile{toc}{\contentsline {subsubsection}{\numberline {5.1.2}Informatie omtrent netwerk map}{12}{subsubsection.5.1.2}\protected@file@percent }
\@writefile{toc}{\contentsline {subsubsection}{\numberline {5.1.3}Informatie omtrent het gebruikte certificaat}{13}{subsubsection.5.1.3}\protected@file@percent }
\newlabel{subsubsec:prepCertificate}{{5.1.3}{13}{Informatie omtrent het gebruikte certificaat}{subsubsection.5.1.3}{}}
\@writefile{toc}{\contentsline {paragraph}{\numberline {5.1.3.1}Via Let's Encrypt}{13}{paragraph.5.1.3.1}\protected@file@percent }
\newlabel{7@xvr}{{}{13}{Via Let's Encrypt}{Item.11}{}}
\newlabel{7@vr}{{}{13}{Via Let's Encrypt}{Item.11}{}}
\newlabel{8@xvr}{{}{13}{Via Let's Encrypt}{Item.13}{}}
\newlabel{8@vr}{{}{13}{Via Let's Encrypt}{Item.13}{}}
\@writefile{lof}{\contentsline {figure}{\numberline {5}{\ignorespaces Navigeren naar DNS Zone\relax }}{13}{figure.caption.5}\protected@file@percent }
\newlabel{fig:navDNSZone}{{5}{13}{Navigeren naar DNS Zone\relax }{figure.caption.5}{}}
\@writefile{lof}{\contentsline {figure}{\numberline {6}{\ignorespaces Menubalk DNS Zone\relax }}{13}{figure.caption.6}\protected@file@percent }
\newlabel{fig:DNSMenu}{{6}{13}{Menubalk DNS Zone\relax }{figure.caption.6}{}}
\@writefile{lof}{\contentsline {figure}{\numberline {7}{\ignorespaces Formulier voor nieuw DNS record\relax }}{14}{figure.caption.7}\protected@file@percent }
\newlabel{fig:newDNSRecord}{{7}{14}{Formulier voor nieuw DNS record\relax }{figure.caption.7}{}}
\@writefile{toc}{\contentsline {paragraph}{\numberline {5.1.3.2}Via de klant zelf}{14}{paragraph.5.1.3.2}\protected@file@percent }
\@writefile{toc}{\contentsline {subsection}{\numberline {5.2}Installatie via script}{14}{subsection.5.2}\protected@file@percent }
\@writefile{toc}{\contentsline {subsubsection}{\numberline {5.2.1}Instellen van share}{15}{subsubsection.5.2.1}\protected@file@percent }
\newlabel{subsubsec:instellenShare}{{5.2.1}{15}{Instellen van share}{subsubsection.5.2.1}{}}
\newlabel{9@xvr}{{}{15}{Instellen van share}{lstnumber.-2.1}{}}
\newlabel{9@vr}{{}{15}{Instellen van share}{lstnumber.-2.1}{}}
\@writefile{lof}{\contentsline {figure}{\numberline {8}{\ignorespaces Formaat voor invoer credentials domein gebruiker\relax }}{15}{figure.caption.8}\protected@file@percent }
\newlabel{fig:servercred}{{8}{15}{Formaat voor invoer credentials domein gebruiker\relax }{figure.caption.8}{}}
\newlabel{10@xvr}{{}{15}{Instellen van share}{lstnumber.-5.1}{}}
\newlabel{10@vr}{{}{15}{Instellen van share}{lstnumber.-5.1}{}}
\@writefile{lof}{\contentsline {figure}{\numberline {9}{\ignorespaces Configuratie voor mounten share\relax }}{15}{figure.caption.9}\protected@file@percent }
\newlabel{fig:fstab}{{9}{15}{Configuratie voor mounten share\relax }{figure.caption.9}{}}
\@writefile{toc}{\contentsline {subsubsection}{\numberline {5.2.2}Linux distributie backend}{16}{subsubsection.5.2.2}\protected@file@percent }
\@writefile{toc}{\contentsline {subsubsection}{\numberline {5.2.3}Naam van de organisatie}{16}{subsubsection.5.2.3}\protected@file@percent }
\newlabel{11@xvr}{{}{16}{Naam van de organisatie}{subsubsection.5.2.3}{}}
\newlabel{11@vr}{{}{16}{Naam van de organisatie}{subsubsection.5.2.3}{}}
\@writefile{lof}{\contentsline {figure}{\numberline {10}{\ignorespaces Naam van de organisatie in de licensing\relax }}{16}{figure.caption.10}\protected@file@percent }
\newlabel{fig:organisatie}{{10}{16}{Naam van de organisatie in de licensing\relax }{figure.caption.10}{}}
\@writefile{toc}{\contentsline {subsubsection}{\numberline {5.2.4}Naam van de backend}{16}{subsubsection.5.2.4}\protected@file@percent }
\newlabel{12@xvr}{{}{16}{Naam van de backend}{subsubsection.5.2.4}{}}
\newlabel{12@vr}{{}{16}{Naam van de backend}{subsubsection.5.2.4}{}}
\@writefile{toc}{\contentsline {subsubsection}{\numberline {5.2.5}Locatie van database server}{16}{subsubsection.5.2.5}\protected@file@percent }
\newlabel{13@xvr}{{}{16}{Locatie van database server}{subsubsection.5.2.5}{}}
\newlabel{13@vr}{{}{16}{Locatie van database server}{subsubsection.5.2.5}{}}
\@writefile{lof}{\contentsline {figure}{\numberline {11}{\ignorespaces Naam van de backend in de licensing\relax }}{17}{figure.caption.11}\protected@file@percent }
\newlabel{fig:backend}{{11}{17}{Naam van de backend in de licensing\relax }{figure.caption.11}{}}
\@writefile{lof}{\contentsline {figure}{\numberline {12}{\ignorespaces Locatie database server\relax }}{17}{figure.caption.12}\protected@file@percent }
\newlabel{fig:dbServer_location}{{12}{17}{Locatie database server\relax }{figure.caption.12}{}}
\@writefile{toc}{\contentsline {subsubsection}{\numberline {5.2.6}Poort van de database server}{17}{subsubsection.5.2.6}\protected@file@percent }
\@writefile{toc}{\contentsline {subsubsection}{\numberline {5.2.7}Gebruiker van de database server}{17}{subsubsection.5.2.7}\protected@file@percent }
\@writefile{toc}{\contentsline {subsubsection}{\numberline {5.2.8}Paswoord van de database server}{17}{subsubsection.5.2.8}\protected@file@percent }
\@writefile{toc}{\contentsline {subsubsection}{\numberline {5.2.9}Aanvraag van certificaten}{17}{subsubsection.5.2.9}\protected@file@percent }
\newlabel{subsub:certificaten}{{5.2.9}{17}{Aanvraag van certificaten}{subsubsection.5.2.9}{}}
\@writefile{lof}{\contentsline {figure}{\numberline {13}{\ignorespaces Poort database server\relax }}{18}{figure.caption.13}\protected@file@percent }
\newlabel{fig:dbServer_port}{{13}{18}{Poort database server\relax }{figure.caption.13}{}}
\@writefile{lof}{\contentsline {figure}{\numberline {14}{\ignorespaces Gebruikersnaam database server\relax }}{18}{figure.caption.14}\protected@file@percent }
\newlabel{fig:dbServer_user}{{14}{18}{Gebruikersnaam database server\relax }{figure.caption.14}{}}
\@writefile{lof}{\contentsline {figure}{\numberline {15}{\ignorespaces Paswoord database server\relax }}{18}{figure.caption.15}\protected@file@percent }
\newlabel{fig:dbServer_pass}{{15}{18}{Paswoord database server\relax }{figure.caption.15}{}}
\@writefile{lof}{\contentsline {figure}{\numberline {16}{\ignorespaces Certificaten aanvragen via Let's Encrypt\relax }}{19}{figure.caption.16}\protected@file@percent }
\newlabel{fig:letsEncrypt}{{16}{19}{Certificaten aanvragen via Let's Encrypt\relax }{figure.caption.16}{}}
\@writefile{lof}{\contentsline {figure}{\numberline {17}{\ignorespaces Certificaten reeds aanwezig\relax }}{19}{figure.caption.17}\protected@file@percent }
\newlabel{fig:certsAanwezig}{{17}{19}{Certificaten reeds aanwezig\relax }{figure.caption.17}{}}
\@writefile{toc}{\contentsline {subsection}{\numberline {5.3}Overzicht}{19}{subsection.5.3}\protected@file@percent }
\@writefile{toc}{\contentsline {subsection}{\numberline {5.4}Structuur na installatie}{19}{subsection.5.4}\protected@file@percent }
\@writefile{toc}{\contentsline {section}{\numberline {A}Gebruik vi}{21}{appendix.A}\protected@file@percent }
\newlabel{appendix:vi}{{A}{21}{Gebruik vi}{appendix.A}{}}
